{
    "_links": {
        "self": {
            "href": ""
        },
        "type": {
            "href": "http:\/\/drupal.org\/rest\/type\/paragraph\/text"
        },
        "http:\/\/drupal.org\/rest\/relation\/paragraph\/text\/uid": [
            {
                "href": "http:\/\/default\/user\/1?_format=hal_json",
                "lang": "en"
            }
        ],
        "http:\/\/drupal.org\/rest\/relation\/paragraph\/text\/revision_uid": [
            {
                "href": "http:\/\/default\/user\/1?_format=hal_json"
            }
        ]
    },
    "id": [
        {
            "value": 150
        }
    ],
    "uuid": [
        {
            "value": "0b15afbd-3ee0-4f5e-a431-95bf6bfed088"
        }
    ],
    "revision_id": [
        {
            "value": 5672
        }
    ],
    "type": [
        {
            "target_id": "text"
        }
    ],
    "langcode": [
        {
            "value": "en",
            "lang": "en"
        }
    ],
    "_embedded": {
        "http:\/\/drupal.org\/rest\/relation\/paragraph\/text\/uid": [
            {
                "_links": {
                    "self": {
                        "href": "http:\/\/default\/user\/1?_format=hal_json"
                    },
                    "type": {
                        "href": "http:\/\/drupal.org\/rest\/type\/user\/user"
                    }
                },
                "uuid": [
                    {
                        "value": "3223b012-e557-4f63-b7e1-f2778a1e5b01"
                    }
                ],
                "lang": "en"
            }
        ],
        "http:\/\/drupal.org\/rest\/relation\/paragraph\/text\/revision_uid": [
            {
                "_links": {
                    "self": {
                        "href": "http:\/\/default\/user\/1?_format=hal_json"
                    },
                    "type": {
                        "href": "http:\/\/drupal.org\/rest\/type\/user\/user"
                    }
                },
                "uuid": [
                    {
                        "value": "3223b012-e557-4f63-b7e1-f2778a1e5b01"
                    }
                ]
            }
        ]
    },
    "status": [
        {
            "value": true,
            "lang": "en"
        }
    ],
    "created": [
        {
            "value": 1497451375,
            "lang": "en"
        }
    ],
    "parent_id": [
        {
            "value": "151"
        }
    ],
    "parent_type": [
        {
            "value": "paragraph"
        }
    ],
    "parent_field_name": [
        {
            "value": "paragraphs_container_paragraphs"
        }
    ],
    "behavior_settings": [
        {
            "value": "a:1:{s:5:\"style\";a:1:{s:5:\"style\";s:9:\"text-left\";}}"
        }
    ],
    "default_langcode": [
        {
            "value": true,
            "lang": "en"
        }
    ],
    "paragraphs_text": [
        {
            "value": "<p>Mstut sodales molesti accums estnulla modnam sacras ris tortor. Variusma telluss aenean metusd uis lacusp semmaec teger varius. Ibulum pretium ecenas torquent nuncves llam. Nulla tortor daut estmorbi porttito cras et vitaenu uis. Dolornu estnunc ultricie leopelle imperd sellus proin morbi. Dictums varius nibhphas blandit cras facili hac. Onec duis auctor isque lorem faucibu imperdie tasse. Nisiinte risusm lobortis nullain quam sapienma nec. Etiam enim ntum roin sse metus morbi necsed. Volutp uisque lacusp at ligulam sque quam. Massa quam cidunt massan vehicula feugiatm purusp ecenas aliquet. Euismodd augue culus egestasm rissed mattis eger turpisve orbi iam. Fringi idnulla aliquam odio egesta cusut viverr risusut.<\/p>\r\n",
            "format": "basic_html",
            "lang": "en"
        }
    ]
}