{
    "_links": {
        "self": {
            "href": ""
        },
        "type": {
            "href": "http:\/\/drupal.org\/rest\/type\/paragraph\/container"
        },
        "http:\/\/drupal.org\/rest\/relation\/paragraph\/container\/uid": [
            {
                "href": "http:\/\/default\/user\/1?_format=hal_json",
                "lang": "en"
            }
        ],
        "http:\/\/drupal.org\/rest\/relation\/paragraph\/container\/revision_uid": [
            {
                "href": "http:\/\/default\/user\/1?_format=hal_json"
            }
        ],
        "http:\/\/drupal.org\/rest\/relation\/paragraph\/container\/paragraphs_container_paragraphs": [
            {
                "href": ""
            },
            {
                "href": ""
            }
        ]
    },
    "id": [
        {
            "value": 266
        }
    ],
    "uuid": [
        {
            "value": "1ff952d9-6534-4f03-9eb9-d58ff8fc2020"
        }
    ],
    "revision_id": [
        {
            "value": 5744
        }
    ],
    "type": [
        {
            "target_id": "container"
        }
    ],
    "langcode": [
        {
            "value": "en",
            "lang": "en"
        }
    ],
    "_embedded": {
        "http:\/\/drupal.org\/rest\/relation\/paragraph\/container\/uid": [
            {
                "_links": {
                    "self": {
                        "href": "http:\/\/default\/user\/1?_format=hal_json"
                    },
                    "type": {
                        "href": "http:\/\/drupal.org\/rest\/type\/user\/user"
                    }
                },
                "uuid": [
                    {
                        "value": "c97de4d9-3f41-4176-9d53-c82440ed4908"
                    }
                ],
                "lang": "en"
            }
        ],
        "http:\/\/drupal.org\/rest\/relation\/paragraph\/container\/revision_uid": [
            {
                "_links": {
                    "self": {
                        "href": "http:\/\/default\/user\/1?_format=hal_json"
                    },
                    "type": {
                        "href": "http:\/\/drupal.org\/rest\/type\/user\/user"
                    }
                },
                "uuid": [
                    {
                        "value": "c97de4d9-3f41-4176-9d53-c82440ed4908"
                    }
                ]
            }
        ],
        "http:\/\/drupal.org\/rest\/relation\/paragraph\/container\/paragraphs_container_paragraphs": [
            {
                "_links": {
                    "self": {
                        "href": ""
                    },
                    "type": {
                        "href": "http:\/\/drupal.org\/rest\/type\/paragraph\/title"
                    }
                },
                "uuid": [
                    {
                        "value": "e7ba2abb-a432-49d3-bc70-7789a976deb9"
                    }
                ],
                "target_revision_id": "5742"
            },
            {
                "_links": {
                    "self": {
                        "href": ""
                    },
                    "type": {
                        "href": "http:\/\/drupal.org\/rest\/type\/paragraph\/text"
                    }
                },
                "uuid": [
                    {
                        "value": "020787a8-872b-49e2-9d0a-1d2a7e5cb40f"
                    }
                ],
                "target_revision_id": "5743"
            }
        ]
    },
    "status": [
        {
            "value": true,
            "lang": "en"
        }
    ],
    "created": [
        {
            "value": 1498550655,
            "lang": "en"
        }
    ],
    "parent_id": [
        {
            "value": "270"
        }
    ],
    "parent_type": [
        {
            "value": "paragraph"
        }
    ],
    "parent_field_name": [
        {
            "value": "paragraphs_container_paragraphs"
        }
    ],
    "behavior_settings": [
        {
            "value": "a:1:{s:5:\"style\";a:1:{s:5:\"style\";s:0:\"\";}}"
        }
    ],
    "default_langcode": [
        {
            "value": true,
            "lang": "en"
        }
    ]
}