{
    "_links": {
        "self": {
            "href": ""
        },
        "type": {
            "href": "http:\/\/drupal.org\/rest\/type\/paragraph\/card"
        },
        "http:\/\/drupal.org\/rest\/relation\/paragraph\/card\/uid": [
            {
                "href": "http:\/\/default\/user\/1?_format=hal_json",
                "lang": "en"
            }
        ],
        "http:\/\/drupal.org\/rest\/relation\/paragraph\/card\/revision_uid": [
            {
                "href": "http:\/\/default\/user\/1?_format=hal_json"
            }
        ],
        "http:\/\/drupal.org\/rest\/relation\/paragraph\/card\/paragraphs_image": [
            {
                "href": "http:\/\/default\/file\/195?_format=hal_json",
                "lang": "en"
            }
        ]
    },
    "id": [
        {
            "value": 216
        }
    ],
    "uuid": [
        {
            "value": "21ca6c24-5b1a-4b50-9114-8ce3779969f4"
        }
    ],
    "revision_id": [
        {
            "value": 4633
        }
    ],
    "type": [
        {
            "target_id": "card"
        }
    ],
    "langcode": [
        {
            "value": "en",
            "lang": "en"
        }
    ],
    "_embedded": {
        "http:\/\/drupal.org\/rest\/relation\/paragraph\/card\/uid": [
            {
                "_links": {
                    "self": {
                        "href": "http:\/\/default\/user\/1?_format=hal_json"
                    },
                    "type": {
                        "href": "http:\/\/drupal.org\/rest\/type\/user\/user"
                    }
                },
                "uuid": [
                    {
                        "value": "3223b012-e557-4f63-b7e1-f2778a1e5b01"
                    }
                ],
                "lang": "en"
            }
        ],
        "http:\/\/drupal.org\/rest\/relation\/paragraph\/card\/revision_uid": [
            {
                "_links": {
                    "self": {
                        "href": "http:\/\/default\/user\/1?_format=hal_json"
                    },
                    "type": {
                        "href": "http:\/\/drupal.org\/rest\/type\/user\/user"
                    }
                },
                "uuid": [
                    {
                        "value": "3223b012-e557-4f63-b7e1-f2778a1e5b01"
                    }
                ]
            }
        ],
        "http:\/\/drupal.org\/rest\/relation\/paragraph\/card\/paragraphs_image": [
            {
                "_links": {
                    "self": {
                        "href": "http:\/\/default\/file\/195?_format=hal_json"
                    },
                    "type": {
                        "href": "http:\/\/drupal.org\/rest\/type\/file\/image"
                    }
                },
                "uuid": [
                    {
                        "value": "ac7ce19f-295c-43de-b844-8b6f37a029df"
                    }
                ],
                "lang": "en",
                "alt": "second-service",
                "title": "",
                "width": "400",
                "height": "300"
            }
        ]
    },
    "status": [
        {
            "value": true,
            "lang": "en"
        }
    ],
    "created": [
        {
            "value": 1498050550,
            "lang": "en"
        }
    ],
    "parent_id": [
        {
            "value": "212"
        }
    ],
    "parent_type": [
        {
            "value": "paragraph"
        }
    ],
    "parent_field_name": [
        {
            "value": "paragraphs_container_paragraphs"
        }
    ],
    "behavior_settings": [
        {
            "value": "a:1:{s:5:\"style\";a:1:{s:5:\"style\";s:0:\"\";}}"
        }
    ],
    "default_langcode": [
        {
            "value": true,
            "lang": "en"
        }
    ],
    "paragraphs_link": [
        {
            "uri": "http:\/\/example.com",
            "title": "Read more",
            "options": [],
            "lang": "en"
        }
    ],
    "paragraphs_text": [
        {
            "value": "<p>Ad tdonec eduis isse turpisp lum. Risusvi auguesed nulla cursusve rutrum imperd telluss dumin tempor. Sodales nibhphas leosed curae euismo maurisin iain dolorma erdiet. Que sed ut eleifend elementu viverr uam. Quisut cras sociosqu sse lectus convalli gsed metus egesta bulum eratfus.<\/p>\r\n",
            "format": "basic_html",
            "lang": "en"
        }
    ],
    "paragraphs_title": [
        {
            "value": "Lacinia ligulam sim",
            "lang": "en"
        }
    ]
}