{
    "_links": {
        "self": {
            "href": ""
        },
        "type": {
            "href": "http:\/\/drupal.org\/rest\/type\/paragraph\/redacto_container"
        },
        "http:\/\/drupal.org\/rest\/relation\/paragraph\/redacto_container\/uid": [
            {
                "href": "http:\/\/default\/user\/1?_format=hal_json",
                "lang": "en"
            }
        ],
        "http:\/\/drupal.org\/rest\/relation\/paragraph\/redacto_container\/revision_uid": [
            {
                "href": "http:\/\/default\/user\/1?_format=hal_json"
            }
        ],
        "http:\/\/drupal.org\/rest\/relation\/paragraph\/redacto_container\/field_background_image": [
            {
                "href": "http:\/\/default\/file\/216?_format=hal_json"
            }
        ],
        "http:\/\/drupal.org\/rest\/relation\/paragraph\/redacto_container\/field_redacto_container": [
            {
                "href": ""
            },
            {
                "href": ""
            },
            {
                "href": ""
            },
            {
                "href": ""
            }
        ]
    },
    "id": [
        {
            "value": 183
        }
    ],
    "uuid": [
        {
            "value": "3e15af61-f77b-4669-8b35-55c3225bca01"
        }
    ],
    "revision_id": [
        {
            "value": 4617
        }
    ],
    "type": [
        {
            "target_id": "redacto_container"
        }
    ],
    "langcode": [
        {
            "value": "en",
            "lang": "en"
        }
    ],
    "_embedded": {
        "http:\/\/drupal.org\/rest\/relation\/paragraph\/redacto_container\/uid": [
            {
                "_links": {
                    "self": {
                        "href": "http:\/\/default\/user\/1?_format=hal_json"
                    },
                    "type": {
                        "href": "http:\/\/drupal.org\/rest\/type\/user\/user"
                    }
                },
                "uuid": [
                    {
                        "value": "3223b012-e557-4f63-b7e1-f2778a1e5b01"
                    }
                ],
                "lang": "en"
            }
        ],
        "http:\/\/drupal.org\/rest\/relation\/paragraph\/redacto_container\/revision_uid": [
            {
                "_links": {
                    "self": {
                        "href": "http:\/\/default\/user\/1?_format=hal_json"
                    },
                    "type": {
                        "href": "http:\/\/drupal.org\/rest\/type\/user\/user"
                    }
                },
                "uuid": [
                    {
                        "value": "3223b012-e557-4f63-b7e1-f2778a1e5b01"
                    }
                ]
            }
        ],
        "http:\/\/drupal.org\/rest\/relation\/paragraph\/redacto_container\/field_background_image": [
            {
                "_links": {
                    "self": {
                        "href": "http:\/\/default\/file\/216?_format=hal_json"
                    },
                    "type": {
                        "href": "http:\/\/drupal.org\/rest\/type\/file\/image"
                    }
                },
                "uuid": [
                    {
                        "value": "7f0b45e8-2526-4061-8d86-b274cbaef87b"
                    }
                ],
                "alt": "background-light-gray",
                "title": "",
                "width": "1920",
                "height": "1080"
            }
        ],
        "http:\/\/drupal.org\/rest\/relation\/paragraph\/redacto_container\/field_redacto_container": [
            {
                "_links": {
                    "self": {
                        "href": ""
                    },
                    "type": {
                        "href": "http:\/\/drupal.org\/rest\/type\/paragraph\/title"
                    }
                },
                "uuid": [
                    {
                        "value": "1f1be260-3a17-418a-b5a1-29adb8797e68"
                    }
                ],
                "target_revision_id": "4613"
            },
            {
                "_links": {
                    "self": {
                        "href": ""
                    },
                    "type": {
                        "href": "http:\/\/drupal.org\/rest\/type\/paragraph\/text"
                    }
                },
                "uuid": [
                    {
                        "value": "e297dce2-4286-4205-85b1-5e55d5319a7b"
                    }
                ],
                "target_revision_id": "4614"
            },
            {
                "_links": {
                    "self": {
                        "href": ""
                    },
                    "type": {
                        "href": "http:\/\/drupal.org\/rest\/type\/paragraph\/separator"
                    }
                },
                "uuid": [
                    {
                        "value": "bdc22073-6bac-4b31-a1fc-f78320f7ac56"
                    }
                ],
                "target_revision_id": "4615"
            },
            {
                "_links": {
                    "self": {
                        "href": ""
                    },
                    "type": {
                        "href": "http:\/\/drupal.org\/rest\/type\/paragraph\/redacto_block"
                    }
                },
                "uuid": [
                    {
                        "value": "32c01c15-2bed-4fed-90f1-a040b274a8a5"
                    }
                ],
                "target_revision_id": "4616"
            }
        ]
    },
    "status": [
        {
            "value": true,
            "lang": "en"
        }
    ],
    "created": [
        {
            "value": 1498036100,
            "lang": "en"
        }
    ],
    "parent_id": [
        {
            "value": "2"
        }
    ],
    "parent_type": [
        {
            "value": "node"
        }
    ],
    "parent_field_name": [
        {
            "value": "field_redacto_paragraphs"
        }
    ],
    "behavior_settings": [
        {
            "value": "a:0:{}"
        }
    ],
    "default_langcode": [
        {
            "value": true,
            "lang": "en"
        }
    ]
}