{
    "_links": {
        "self": {
            "href": ""
        },
        "type": {
            "href": "http:\/\/drupal.org\/rest\/type\/paragraph\/grid"
        },
        "http:\/\/drupal.org\/rest\/relation\/paragraph\/grid\/uid": [
            {
                "href": "http:\/\/default\/user\/1?_format=hal_json",
                "lang": "en"
            }
        ],
        "http:\/\/drupal.org\/rest\/relation\/paragraph\/grid\/revision_uid": [
            {
                "href": "http:\/\/default\/user\/1?_format=hal_json"
            }
        ],
        "http:\/\/drupal.org\/rest\/relation\/paragraph\/grid\/paragraphs_container_paragraphs": [
            {
                "href": ""
            },
            {
                "href": ""
            }
        ]
    },
    "id": [
        {
            "value": 289
        }
    ],
    "uuid": [
        {
            "value": "46e79d6e-1293-4c53-9165-f08ff0e6bb51"
        }
    ],
    "revision_id": [
        {
            "value": 5660
        }
    ],
    "type": [
        {
            "target_id": "grid"
        }
    ],
    "langcode": [
        {
            "value": "en",
            "lang": "en"
        }
    ],
    "_embedded": {
        "http:\/\/drupal.org\/rest\/relation\/paragraph\/grid\/uid": [
            {
                "_links": {
                    "self": {
                        "href": "http:\/\/default\/user\/1?_format=hal_json"
                    },
                    "type": {
                        "href": "http:\/\/drupal.org\/rest\/type\/user\/user"
                    }
                },
                "uuid": [
                    {
                        "value": "3223b012-e557-4f63-b7e1-f2778a1e5b01"
                    }
                ],
                "lang": "en"
            }
        ],
        "http:\/\/drupal.org\/rest\/relation\/paragraph\/grid\/revision_uid": [
            {
                "_links": {
                    "self": {
                        "href": "http:\/\/default\/user\/1?_format=hal_json"
                    },
                    "type": {
                        "href": "http:\/\/drupal.org\/rest\/type\/user\/user"
                    }
                },
                "uuid": [
                    {
                        "value": "3223b012-e557-4f63-b7e1-f2778a1e5b01"
                    }
                ]
            }
        ],
        "http:\/\/drupal.org\/rest\/relation\/paragraph\/grid\/paragraphs_container_paragraphs": [
            {
                "_links": {
                    "self": {
                        "href": ""
                    },
                    "type": {
                        "href": "http:\/\/drupal.org\/rest\/type\/paragraph\/media"
                    }
                },
                "uuid": [
                    {
                        "value": "cbb9b32d-cebb-477b-96c3-3ee6a6a8457e"
                    }
                ],
                "target_revision_id": "5658"
            },
            {
                "_links": {
                    "self": {
                        "href": ""
                    },
                    "type": {
                        "href": "http:\/\/drupal.org\/rest\/type\/paragraph\/quote"
                    }
                },
                "uuid": [
                    {
                        "value": "35ac4b22-b32a-482e-a475-163c0d43f0d0"
                    }
                ],
                "target_revision_id": "5659"
            }
        ]
    },
    "status": [
        {
            "value": true,
            "lang": "en"
        }
    ],
    "created": [
        {
            "value": 1499327535,
            "lang": "en"
        }
    ],
    "parent_id": [
        {
            "value": "290"
        }
    ],
    "parent_type": [
        {
            "value": "paragraph"
        }
    ],
    "parent_field_name": [
        {
            "value": "field_redacto_container"
        }
    ],
    "behavior_settings": [
        {
            "value": "a:1:{s:11:\"grid_layout\";a:1:{s:6:\"layout\";s:18:\"redacto_1_1_column\";}}"
        }
    ],
    "default_langcode": [
        {
            "value": true,
            "lang": "en"
        }
    ]
}