{
    "_links": {
        "self": {
            "href": ""
        },
        "type": {
            "href": "http:\/\/drupal.org\/rest\/type\/paragraph\/quote"
        },
        "http:\/\/drupal.org\/rest\/relation\/paragraph\/quote\/uid": [
            {
                "href": "http:\/\/default\/user\/1?_format=hal_json",
                "lang": "en"
            }
        ],
        "http:\/\/drupal.org\/rest\/relation\/paragraph\/quote\/revision_uid": [
            {
                "href": "http:\/\/default\/user\/1?_format=hal_json"
            }
        ]
    },
    "id": [
        {
            "value": 226
        }
    ],
    "uuid": [
        {
            "value": "5b8319d8-cff1-43fd-be48-293dd3879b2a"
        }
    ],
    "revision_id": [
        {
            "value": 5707
        }
    ],
    "type": [
        {
            "target_id": "quote"
        }
    ],
    "langcode": [
        {
            "value": "en",
            "lang": "en"
        }
    ],
    "_embedded": {
        "http:\/\/drupal.org\/rest\/relation\/paragraph\/quote\/uid": [
            {
                "_links": {
                    "self": {
                        "href": "http:\/\/default\/user\/1?_format=hal_json"
                    },
                    "type": {
                        "href": "http:\/\/drupal.org\/rest\/type\/user\/user"
                    }
                },
                "uuid": [
                    {
                        "value": "c97de4d9-3f41-4176-9d53-c82440ed4908"
                    }
                ],
                "lang": "en"
            }
        ],
        "http:\/\/drupal.org\/rest\/relation\/paragraph\/quote\/revision_uid": [
            {
                "_links": {
                    "self": {
                        "href": "http:\/\/default\/user\/1?_format=hal_json"
                    },
                    "type": {
                        "href": "http:\/\/drupal.org\/rest\/type\/user\/user"
                    }
                },
                "uuid": [
                    {
                        "value": "c97de4d9-3f41-4176-9d53-c82440ed4908"
                    }
                ]
            }
        ]
    },
    "status": [
        {
            "value": true,
            "lang": "en"
        }
    ],
    "created": [
        {
            "value": 1498547769,
            "lang": "en"
        }
    ],
    "parent_id": [
        {
            "value": "227"
        }
    ],
    "parent_type": [
        {
            "value": "paragraph"
        }
    ],
    "parent_field_name": [
        {
            "value": "paragraphs_container_paragraphs"
        }
    ],
    "behavior_settings": [
        {
            "value": "a:0:{}"
        }
    ],
    "default_langcode": [
        {
            "value": true,
            "lang": "en"
        }
    ],
    "paragraphs_quote_author": [
        {
            "value": "John Doe, ACTO Team",
            "lang": "en"
        }
    ],
    "paragraphs_quote_text": [
        {
            "value": "<p>Mipraese arcu sque portad urnain nisimor litora teger. Ligula purusp nulla iam lus egestas disse lum nulla. Liberoa min vitaenul ulum convalli erat sedinteg sapien. Itur turpiset nequeal nislsed ipsump uam magnap felis. Aptent nec tincid quispr sapienv mauris. Feugiatm estmorbi nibhnull tempus lus tasse. Egestas ger turpisp acum class adipisci dolordo esque. Llus ullam viverr ultric disse utcras unc tortor. Ecenas aliquete egetal conubia metussed llam ris ctetur.&nbsp;Lacini teger ullamco tasse cursusp class ger nulla etiam eu.<\/p>\r\n",
            "format": "full_html",
            "lang": "en"
        }
    ]
}