{
    "_links": {
        "self": {
            "href": ""
        },
        "type": {
            "href": "http:\/\/drupal.org\/rest\/type\/paragraph\/pcb_progress_bar"
        },
        "http:\/\/drupal.org\/rest\/relation\/paragraph\/pcb_progress_bar\/uid": [
            {
                "href": "http:\/\/default\/user\/1?_format=hal_json",
                "lang": "en"
            }
        ],
        "http:\/\/drupal.org\/rest\/relation\/paragraph\/pcb_progress_bar\/revision_uid": [
            {
                "href": "http:\/\/default\/user\/1?_format=hal_json"
            }
        ]
    },
    "id": [
        {
            "value": 197
        }
    ],
    "uuid": [
        {
            "value": "81419873-c03b-45da-8109-966a9a3e7f97"
        }
    ],
    "revision_id": [
        {
            "value": 5693
        }
    ],
    "type": [
        {
            "target_id": "pcb_progress_bar"
        }
    ],
    "langcode": [
        {
            "value": "en",
            "lang": "en"
        }
    ],
    "_embedded": {
        "http:\/\/drupal.org\/rest\/relation\/paragraph\/pcb_progress_bar\/uid": [
            {
                "_links": {
                    "self": {
                        "href": "http:\/\/default\/user\/1?_format=hal_json"
                    },
                    "type": {
                        "href": "http:\/\/drupal.org\/rest\/type\/user\/user"
                    }
                },
                "uuid": [
                    {
                        "value": "3223b012-e557-4f63-b7e1-f2778a1e5b01"
                    }
                ],
                "lang": "en"
            }
        ],
        "http:\/\/drupal.org\/rest\/relation\/paragraph\/pcb_progress_bar\/revision_uid": [
            {
                "_links": {
                    "self": {
                        "href": "http:\/\/default\/user\/1?_format=hal_json"
                    },
                    "type": {
                        "href": "http:\/\/drupal.org\/rest\/type\/user\/user"
                    }
                },
                "uuid": [
                    {
                        "value": "3223b012-e557-4f63-b7e1-f2778a1e5b01"
                    }
                ]
            }
        ]
    },
    "status": [
        {
            "value": true,
            "lang": "en"
        }
    ],
    "created": [
        {
            "value": 1498045437,
            "lang": "en"
        }
    ],
    "parent_id": [
        {
            "value": "199"
        }
    ],
    "parent_type": [
        {
            "value": "paragraph"
        }
    ],
    "parent_field_name": [
        {
            "value": "field_pcb_progress_bar"
        }
    ],
    "behavior_settings": [
        {
            "value": "a:2:{s:5:\"style\";a:1:{s:5:\"style\";s:7:\"bg-info\";}s:16:\"pcb_progress_bar\";a:3:{s:7:\"striped\";i:0;s:8:\"animated\";i:0;s:5:\"label\";i:1;}}"
        }
    ],
    "default_langcode": [
        {
            "value": true,
            "lang": "en"
        }
    ],
    "field_pcb_progress_bar_height": [
        {
            "value": 24
        }
    ],
    "field_pcb_progress_bar_width": [
        {
            "value": 50
        }
    ]
}