{
    "_links": {
        "self": {
            "href": ""
        },
        "type": {
            "href": "http:\/\/drupal.org\/rest\/type\/paragraph\/redacto_container"
        },
        "http:\/\/drupal.org\/rest\/relation\/paragraph\/redacto_container\/uid": [
            {
                "href": "http:\/\/default\/user\/1?_format=hal_json",
                "lang": "en"
            }
        ],
        "http:\/\/drupal.org\/rest\/relation\/paragraph\/redacto_container\/revision_uid": [
            {
                "href": "http:\/\/default\/user\/1?_format=hal_json"
            }
        ],
        "http:\/\/drupal.org\/rest\/relation\/paragraph\/redacto_container\/field_background_image": [
            {
                "href": "http:\/\/default\/file\/218?_format=hal_json"
            }
        ],
        "http:\/\/drupal.org\/rest\/relation\/paragraph\/redacto_container\/field_redacto_container": [
            {
                "href": ""
            }
        ]
    },
    "id": [
        {
            "value": 290
        }
    ],
    "uuid": [
        {
            "value": "8ff2f973-7bc4-4c4d-b579-334a09ffbfa2"
        }
    ],
    "revision_id": [
        {
            "value": 5661
        }
    ],
    "type": [
        {
            "target_id": "redacto_container"
        }
    ],
    "langcode": [
        {
            "value": "en",
            "lang": "en"
        }
    ],
    "_embedded": {
        "http:\/\/drupal.org\/rest\/relation\/paragraph\/redacto_container\/uid": [
            {
                "_links": {
                    "self": {
                        "href": "http:\/\/default\/user\/1?_format=hal_json"
                    },
                    "type": {
                        "href": "http:\/\/drupal.org\/rest\/type\/user\/user"
                    }
                },
                "uuid": [
                    {
                        "value": "3223b012-e557-4f63-b7e1-f2778a1e5b01"
                    }
                ],
                "lang": "en"
            }
        ],
        "http:\/\/drupal.org\/rest\/relation\/paragraph\/redacto_container\/revision_uid": [
            {
                "_links": {
                    "self": {
                        "href": "http:\/\/default\/user\/1?_format=hal_json"
                    },
                    "type": {
                        "href": "http:\/\/drupal.org\/rest\/type\/user\/user"
                    }
                },
                "uuid": [
                    {
                        "value": "3223b012-e557-4f63-b7e1-f2778a1e5b01"
                    }
                ]
            }
        ],
        "http:\/\/drupal.org\/rest\/relation\/paragraph\/redacto_container\/field_background_image": [
            {
                "_links": {
                    "self": {
                        "href": "http:\/\/default\/file\/218?_format=hal_json"
                    },
                    "type": {
                        "href": "http:\/\/drupal.org\/rest\/type\/file\/image"
                    }
                },
                "uuid": [
                    {
                        "value": "04faeb08-89f3-4252-b65c-72ee02762d65"
                    }
                ],
                "alt": "background-gray",
                "title": "",
                "width": "1920",
                "height": "1080"
            }
        ],
        "http:\/\/drupal.org\/rest\/relation\/paragraph\/redacto_container\/field_redacto_container": [
            {
                "_links": {
                    "self": {
                        "href": ""
                    },
                    "type": {
                        "href": "http:\/\/drupal.org\/rest\/type\/paragraph\/grid"
                    }
                },
                "uuid": [
                    {
                        "value": "46e79d6e-1293-4c53-9165-f08ff0e6bb51"
                    }
                ],
                "target_revision_id": "5660"
            }
        ]
    },
    "status": [
        {
            "value": true,
            "lang": "en"
        }
    ],
    "created": [
        {
            "value": 1499327515,
            "lang": "en"
        }
    ],
    "parent_id": [
        {
            "value": "146"
        }
    ],
    "parent_type": [
        {
            "value": "paragraph"
        }
    ],
    "parent_field_name": [
        {
            "value": "field_pcb_carousel_slide"
        }
    ],
    "behavior_settings": [
        {
            "value": "a:0:{}"
        }
    ],
    "default_langcode": [
        {
            "value": true,
            "lang": "en"
        }
    ]
}