{
    "_links": {
        "self": {
            "href": ""
        },
        "type": {
            "href": "http:\/\/drupal.org\/rest\/type\/paragraph\/title"
        },
        "http:\/\/drupal.org\/rest\/relation\/paragraph\/title\/uid": [
            {
                "href": "http:\/\/default\/user\/1?_format=hal_json",
                "lang": "en"
            }
        ],
        "http:\/\/drupal.org\/rest\/relation\/paragraph\/title\/revision_uid": [
            {
                "href": "http:\/\/default\/user\/1?_format=hal_json"
            }
        ]
    },
    "id": [
        {
            "value": 257
        }
    ],
    "uuid": [
        {
            "value": "e04c1231-75f3-443b-9d37-0ceae7df07b4"
        }
    ],
    "revision_id": [
        {
            "value": 5735
        }
    ],
    "type": [
        {
            "target_id": "title"
        }
    ],
    "langcode": [
        {
            "value": "en",
            "lang": "en"
        }
    ],
    "_embedded": {
        "http:\/\/drupal.org\/rest\/relation\/paragraph\/title\/uid": [
            {
                "_links": {
                    "self": {
                        "href": "http:\/\/default\/user\/1?_format=hal_json"
                    },
                    "type": {
                        "href": "http:\/\/drupal.org\/rest\/type\/user\/user"
                    }
                },
                "uuid": [
                    {
                        "value": "c97de4d9-3f41-4176-9d53-c82440ed4908"
                    }
                ],
                "lang": "en"
            }
        ],
        "http:\/\/drupal.org\/rest\/relation\/paragraph\/title\/revision_uid": [
            {
                "_links": {
                    "self": {
                        "href": "http:\/\/default\/user\/1?_format=hal_json"
                    },
                    "type": {
                        "href": "http:\/\/drupal.org\/rest\/type\/user\/user"
                    }
                },
                "uuid": [
                    {
                        "value": "c97de4d9-3f41-4176-9d53-c82440ed4908"
                    }
                ]
            }
        ]
    },
    "status": [
        {
            "value": true,
            "lang": "en"
        }
    ],
    "created": [
        {
            "value": 1498550131,
            "lang": "en"
        }
    ],
    "parent_id": [
        {
            "value": "259"
        }
    ],
    "parent_type": [
        {
            "value": "paragraph"
        }
    ],
    "parent_field_name": [
        {
            "value": "paragraphs_container_paragraphs"
        }
    ],
    "behavior_settings": [
        {
            "value": "a:1:{s:5:\"style\";a:1:{s:5:\"style\";s:9:\"text-left\";}}"
        }
    ],
    "default_langcode": [
        {
            "value": true,
            "lang": "en"
        }
    ],
    "paragraphs_title": [
        {
            "value": "Jumbotron",
            "lang": "en"
        }
    ]
}