{
    "_links": {
        "self": {
            "href": ""
        },
        "type": {
            "href": "http:\/\/drupal.org\/rest\/type\/paragraph\/pcb_progress"
        },
        "http:\/\/drupal.org\/rest\/relation\/paragraph\/pcb_progress\/uid": [
            {
                "href": "http:\/\/default\/user\/1?_format=hal_json",
                "lang": "en"
            }
        ],
        "http:\/\/drupal.org\/rest\/relation\/paragraph\/pcb_progress\/revision_uid": [
            {
                "href": "http:\/\/default\/user\/1?_format=hal_json"
            }
        ],
        "http:\/\/drupal.org\/rest\/relation\/paragraph\/pcb_progress\/field_pcb_progress_bar": [
            {
                "href": ""
            }
        ]
    },
    "id": [
        {
            "value": 191
        }
    ],
    "uuid": [
        {
            "value": "eece13f5-cb67-4d16-afdf-03af9295a285"
        }
    ],
    "revision_id": [
        {
            "value": 5687
        }
    ],
    "type": [
        {
            "target_id": "pcb_progress"
        }
    ],
    "langcode": [
        {
            "value": "en",
            "lang": "en"
        }
    ],
    "_embedded": {
        "http:\/\/drupal.org\/rest\/relation\/paragraph\/pcb_progress\/uid": [
            {
                "_links": {
                    "self": {
                        "href": "http:\/\/default\/user\/1?_format=hal_json"
                    },
                    "type": {
                        "href": "http:\/\/drupal.org\/rest\/type\/user\/user"
                    }
                },
                "uuid": [
                    {
                        "value": "3223b012-e557-4f63-b7e1-f2778a1e5b01"
                    }
                ],
                "lang": "en"
            }
        ],
        "http:\/\/drupal.org\/rest\/relation\/paragraph\/pcb_progress\/revision_uid": [
            {
                "_links": {
                    "self": {
                        "href": "http:\/\/default\/user\/1?_format=hal_json"
                    },
                    "type": {
                        "href": "http:\/\/drupal.org\/rest\/type\/user\/user"
                    }
                },
                "uuid": [
                    {
                        "value": "3223b012-e557-4f63-b7e1-f2778a1e5b01"
                    }
                ]
            }
        ],
        "http:\/\/drupal.org\/rest\/relation\/paragraph\/pcb_progress\/field_pcb_progress_bar": [
            {
                "_links": {
                    "self": {
                        "href": ""
                    },
                    "type": {
                        "href": "http:\/\/drupal.org\/rest\/type\/paragraph\/pcb_progress_bar"
                    }
                },
                "uuid": [
                    {
                        "value": "6dbe4f80-a8a7-4872-bd10-f25d975a2f33"
                    }
                ],
                "target_revision_id": "5686"
            }
        ]
    },
    "status": [
        {
            "value": true,
            "lang": "en"
        }
    ],
    "created": [
        {
            "value": 1498043496,
            "lang": "en"
        }
    ],
    "parent_id": [
        {
            "value": "167"
        }
    ],
    "parent_type": [
        {
            "value": "paragraph"
        }
    ],
    "parent_field_name": [
        {
            "value": "paragraphs_container_paragraphs"
        }
    ],
    "behavior_settings": [
        {
            "value": "a:0:{}"
        }
    ],
    "default_langcode": [
        {
            "value": true,
            "lang": "en"
        }
    ]
}