{
    "_links": {
        "self": {
            "href": "http:\/\/default\/components?_format=hal_json"
        },
        "type": {
            "href": "http:\/\/drupal.org\/rest\/type\/node\/redacto_page"
        },
        "http:\/\/drupal.org\/rest\/relation\/node\/redacto_page\/uid": [
            {
                "href": "http:\/\/default\/user\/1?_format=hal_json",
                "lang": "en"
            }
        ],
        "http:\/\/drupal.org\/rest\/relation\/node\/redacto_page\/revision_uid": [
            {
                "href": "http:\/\/default\/user\/1?_format=hal_json"
            }
        ],
        "http:\/\/drupal.org\/rest\/relation\/node\/redacto_page\/field_redacto_paragraphs": [
            {
                "href": ""
            },
            {
                "href": ""
            }
        ]
    },
    "nid": [
        {
            "value": 23
        }
    ],
    "uuid": [
        {
            "value": "8a5f11c5-06b5-4810-b5ad-938d0ff17d1f"
        }
    ],
    "vid": [
        {
            "value": 387
        }
    ],
    "langcode": [
        {
            "value": "en",
            "lang": "en"
        }
    ],
    "type": [
        {
            "target_id": "redacto_page"
        }
    ],
    "status": [
        {
            "value": true,
            "lang": "en"
        }
    ],
    "title": [
        {
            "value": "Components",
            "lang": "en"
        }
    ],
    "_embedded": {
        "http:\/\/drupal.org\/rest\/relation\/node\/redacto_page\/uid": [
            {
                "_links": {
                    "self": {
                        "href": "http:\/\/default\/user\/1?_format=hal_json"
                    },
                    "type": {
                        "href": "http:\/\/drupal.org\/rest\/type\/user\/user"
                    }
                },
                "uuid": [
                    {
                        "value": "c97de4d9-3f41-4176-9d53-c82440ed4908"
                    }
                ],
                "lang": "en"
            }
        ],
        "http:\/\/drupal.org\/rest\/relation\/node\/redacto_page\/revision_uid": [
            {
                "_links": {
                    "self": {
                        "href": "http:\/\/default\/user\/1?_format=hal_json"
                    },
                    "type": {
                        "href": "http:\/\/drupal.org\/rest\/type\/user\/user"
                    }
                },
                "uuid": [
                    {
                        "value": "c97de4d9-3f41-4176-9d53-c82440ed4908"
                    }
                ]
            }
        ],
        "http:\/\/drupal.org\/rest\/relation\/node\/redacto_page\/field_redacto_paragraphs": [
            {
                "_links": {
                    "self": {
                        "href": ""
                    },
                    "type": {
                        "href": "http:\/\/drupal.org\/rest\/type\/paragraph\/redacto_container"
                    }
                },
                "uuid": [
                    {
                        "value": "8433cf63-1411-4c66-80b1-7ddd66840423"
                    }
                ],
                "target_revision_id": "5703"
            },
            {
                "_links": {
                    "self": {
                        "href": ""
                    },
                    "type": {
                        "href": "http:\/\/drupal.org\/rest\/type\/paragraph\/container"
                    }
                },
                "uuid": [
                    {
                        "value": "6bded89a-d5e7-4653-b705-b25fb61973ec"
                    }
                ],
                "target_revision_id": "5757"
            }
        ]
    },
    "created": [
        {
            "value": 1498546976,
            "lang": "en"
        }
    ],
    "changed": [
        {
            "value": 1502196879,
            "lang": "en"
        }
    ],
    "promote": [
        {
            "value": true,
            "lang": "en"
        }
    ],
    "sticky": [
        {
            "value": false,
            "lang": "en"
        }
    ],
    "revision_timestamp": [
        {
            "value": 1502196879
        }
    ],
    "revision_translation_affected": [
        {
            "value": true,
            "lang": "en"
        }
    ],
    "default_langcode": [
        {
            "value": true,
            "lang": "en"
        }
    ]
}